…
```r
df_gather <- df_spread %>%
  gather(sample, proportion, hall_female:vietnam_vet)
```

We can take a quick look at the structure of the output, but we will filter out the NA values first, as we did for the df_spread dataset, as many are created for words that appear in one sample of dreams but not the other. Notice we do the same not-NA process (!is.na) on both the college_women data and the "proportion" variable. Remember that the college_women are our reference sample, so the 'sample' in this case tells us who provide the data in the proportion column.

```r
df_gather %>%
  filter(!is.na(college_women) & !is.na(proportion))
```

```
## # A tibble: 1,950 × 4
##    word     college_women sample      proportion
##    <chr>            <dbl> <chr>            <dbl>
##  1 accident          0.03 hall_female       0.02
##  2 act               0.06 hall_female       0.05
##  3 afraid            0.24 hall_female       0.1 
##  4 age               0.61 hall_female       0.27
##  5 aged              0.09 hall_female       0.02
##  6 ages              0.03 hall_female       0.05
##  7 ago               0.12 hall_female       0.15
##  8 ahead             0.06 hall_female       0.02
##  9 air               0.15 hall_female       0.02
## 10 alarm             0.09 hall_female       0.02
## # … with 1,940 more rows
```
…
