…
```r
df_word <- df_word %>%
  inner_join(afinn)
```

```
## Joining, by = "word"
```

```r
df_word
```

```
## # A tibble: 1,921 × 4
##    sample        dream_number word     value
##    <fct>                <int> <chr>    <dbl>
##  1 college_women            2 dream        1
##  2 college_women            3 failed      -2
##  3 college_women            4 careful      2
##  4 college_women            5 dream        1
##  5 college_women            5 straight     1
##  6 college_women            5 laughing     1
##  7 college_women            5 stopped     -1
##  8 college_women            6 angry       -3
##  9 college_women            6 dream        1
## 10 college_women            7 hard        -1
## # … with 1,911 more rows
```

After matching words in the afinn sentiment lexicon with words in our dreams dataframe df_word, we can run a count to see the most frequently occurring words with sentiment ratings. If we also group_by the *word* and *value*, we can see the sentiment assigned to each word at the same time. We will use a trick I learned from David Robinson's video *"Ten Tremendous Tricks in the Tidyverse"* which is here.

https://www.youtube.com/watch?v=NDHSBUN_rVU

He points out that the *count()* function has a *name* argument so we can assign it a name rather than the default of "n". Here we will call it *frequency* as it is representing the frequency of words by token.

```r
df_word %>%
  group_by(word, value) %>%
  count(word, sort = TRUE, name = "frequency")
```

```
## # A tibble: 591 × 3
## # Groups:   word, value [591]
##    word      value frequency
##    <chr>     <dbl>     <int>
##  1 dream         1       132
##  2 leave        -1        43
##  3 feeling       1        34
##  4 dead         -3        31
##  5 happy         3        28
##  6 top           2        28
##  7 stop         -1        27
##  8 beautiful     3        26
##  9 stopped      -1        24
## 10 afraid       -2        22
## # … with 581 more rows
```
…
If we include the 'sample' as the first argument of the *count()* function, we can retain this variable in the output. Then if we give our *group_by()* function the arguments for word, value and dream_number, we can separate out the word and the sentiment (value) for each dream_number. The difference here is that we are counting the most frequent sentiment words *per dream* rather than *per sample*. We will come back to this issue of *level of analysis* later in this post as we look at ways to aggregate the sentiment.


```r
df_word <- df_word %>%
  group_by(word, value, dream_number) %>%
  count(sample, word, sort = TRUE, name = "frequency")
df_word
```

```
## # A tibble: 1,731 × 5
## # Groups:   word, value, dream_number [1,731]
##    word    value dream_number sample        frequency
##    <chr>   <dbl>        <int> <fct>             <int>
##  1 crying     -2          305 hall_female           4
##  2 dead       -3          336 hall_female           4
##  3 dream       1          258 hall_male             4
##  4 hide       -1          202 hall_male             4
##  5 top         2          322 hall_female           4
##  6 war        -2          113 vietnam_vet           4
##  7 barrier    -2          173 vietnam_vet           3
##  8 blocks     -1           65 college_women         3
##  9 crying     -2          381 hall_female           3
## 10 dead       -3          351 hall_female           3
## # … with 1,721 more rows
```

Here we see that 'crying' occurred 4 times in one dream (number 305), as did 'dead' and 'war'.

## Strongest sentiments
We could also look at arranging the data just by values. What are the most positive words that occurred in the dream dataset?

```r
df_word %>%
  arrange(desc(value))
```

```
## # A tibble: 1,731 × 5
## # Groups:   word, value, dream_number [1,731]
##    word      value dream_number sample      frequency
##    <chr>     <dbl>        <int> <fct>           <int>
##  1 superb        5          157 vietnam_vet         1
##  2 brilliant     4          327 hall_female         1
##  3 brilliant     4          339 hall_female         1
##  4 fantastic     4          377 hall_female         1
##  5 fun           4          167 vietnam_vet         1
##  6 fun           4          390 hall_female         1
##  7 funny         4          177 vietnam_vet         1
##  8 funny         4          255 hall_male           1
##  9 overjoyed     4          280 hall_male           1
## 10 overjoyed     4          315 hall_female         1
## # … with 1,721 more rows
```

Likewise, we can ask what are them most negative words in the dreams dataset?

```r
df_word %>%
  arrange(value)
```

```
## # A tibble: 1,731 × 5
## # Groups:   word, value, dream_number [1,731]
##    word    value dream_number sample      frequency
##    <chr>   <dbl>        <int> <fct>           <int>
##  1 dick       -4          120 vietnam_vet         3
##  2 fucking    -4          170 vietnam_vet         2
##  3 ass        -4          107 vietnam_vet         1
##  4 fucker     -4          128 vietnam_vet         1
##  5 shit       -4          121 vietnam_vet         1
##  6 shit       -4          178 vietnam_vet         1
##  7 whore      -4          297 hall_male           1
##  8 dead       -3          336 hall_female         4
##  9 dead       -3          351 hall_female         3
## 10 die        -3          226 hall_male           3
## # … with 1,721 more rows
```
…
So we can be assured that the word was being used to describe negative sentiment and the lexicon classified it correctly in this instance.

## Sentiment metric
Now that we have assigned sentiment values to each word in our dataframe, it opens a possibility of generating a sentiment metric based on a combination of frequency (n) and valence (value). We could calculate this as *value* x *frequency*. We will add this new variable (sent_met) using a *mutate()* function and then arrange the dataset by it.

```r
df_word <- df_word %>%
  mutate(sent_met = value * frequency) %>%
  arrange(sent_met)
df_word
```

```
## # A tibble: 1,731 × 6
## # Groups:   word, value, dream_number [1,731]
##    word    value dream_number sample      frequency sent_met
##    <chr>   <dbl>        <int> <fct>           <int>    <dbl>
##  1 dead       -3          336 hall_female         4      -12
##  2 dick       -4          120 vietnam_vet         3      -12
##  3 dead       -3          351 hall_female         3       -9
##  4 die        -3          226 hall_male           3       -9
##  5 crying     -2          305 hall_female         4       -8
##  6 war        -2          113 vietnam_vet         4       -8
##  7 fucking    -4          170 vietnam_vet         2       -8
##  8 barrier    -2          173 vietnam_vet         3       -6
##  9 crying     -2          381 hall_female         3       -6
## 10 pain       -2          263 hall_male           3       -6
## # … with 1,721 more rows
```
…
We can check the output of this process, while arranging by the highest value.

```r
df_pos %>%
  arrange(desc(positive))
```

```
## # A tibble: 314 × 2
##    dream_number positive
##           <int>    <dbl>
##  1          307       20
##  2          315       20
##  3          272       19
##  4          146       17
##  5          231       16
##  6          325       16
##  7          165       15
##  8          123       14
##  9          170       14
## 10          177       13
## # … with 304 more rows
```
…
Then we can arrange them to see which dream contained the most negative sentiment.

```r
df_neg %>%
  arrange(negative)
```

```
## # A tibble: 336 × 2
##    dream_number negative
##           <int>    <dbl>
##  1          121      -26
##  2          191      -24
##  3          165      -22
##  4          351      -21
##  5          161      -19
##  6          173      -19
##  7          226      -19
##  8          170      -18
##  9          305      -18
## 10          397      -18
## # … with 326 more rows
```
…
##       Combining sentiment scores into a single dataframe

Finally, we need to bring our positive and negative sentiment scores together with our other data. Notice that each of these dataframes returns slightly less than 400 observations - 314 for the positive and 336 for the negative. This means that 86 dreams had no positive words and 64 had no negative words. If there are a few dreams with neither, we might be interested to know whether emotionally neutral dreams are special in some way, and examine them in more detail. Some studies have found high rates of emotion in dreams which would indicate that emotionally neutral dreams are more unusual (Merritt, J. M., Stickgold, R., Pace-Schott, E., Williams, J., & Hobson, J. A. (1994). Emotion Profiles in the Dreams of Men and Women. *Consciousness and Cognition*, 3(1), 46–60.) https://doi.org/10.1006/ccog.1994.1004.

To bring these two sets back together with a composite dataframe, with the dream being the unit of analysis, we need to join the two sets together, but instead of an *inner_join()* that only retains the observations that occur in both dataframes, we want to use the *full_join()* to retain all observations. Note the value passed to the *by=* argument in this function requires speech marks, despite being a variable name. I am not sure why this is and it does seem a little inconsistent with the tidyverse conventions. So, if like me, you run this line and are staring at the error: "Error in common_by(by, x, y) : object 'dream_number' not found" - this is why!


```r
df_pos_and_neg <- full_join(df_pos, df_neg, by = "dream_number")
df_pos_and_neg
```

```
## # A tibble: 382 × 3
##    dream_number positive negative
##           <int>    <dbl>    <dbl>
##  1            2        1       NA
##  2            4        2       NA
##  3            5        3       -1
##  4            6        1       -3
##  5            8        1       -1
##  6            9        4       -3
##  7           10        3       -5
##  8           12        5       -8
##  9           13        3       -2
## 10           15        4       -3
## # … with 372 more rows
```
…
<img src="{{< blogdown/postref >}}index_files/figure-html/unnamed-chunk-30-1.png" width="672" />

We can see that the vietnam_vet dreams appear to contain the most sentiment. In circumstances where the dataset allows us to compare the samples statistically, we could have used an ANOVA here to check whether these differences are significant. We might also want to take a look at the the single dream with the highest sentiment score. If we arrange the dataset by sentiment, in desceding order, this will give us the value.


```r
df_sentiment %>%
  arrange(desc(sentiment))
```

```
## # A tibble: 400 × 5
## # Rowwise: 
##    sample      dream_number positive negative sentiment
##    <chr>              <int>    <dbl>    <dbl>     <dbl>
##  1 vietnam_vet          165       15      -22        37
##  2 vietnam_vet          170       14      -18        32
##  3 hall_male            226       11      -19        30
##  4 vietnam_vet          113       11      -17        28
##  5 vietnam_vet          121        2      -26        28
##  6 hall_male            272       19       -9        28
##  7 hall_female          315       20       -6        26
##  8 vietnam_vet          191        0      -24        24
##  9 hall_male            279        8      -16        24
## 10 vietnam_vet          106        9      -14        23
## # … with 390 more rows
```
…
