…
```r
df_trigrams %>%
  group_by(sample) %>%
  count(trigrams, sort = TRUE) %>%
  ungroup()
```

```
## # A tibble: 50,935 × 3
##    sample        trigrams              n
##    <fct>         <chr>             <int>
##  1 vietnam_vet   i tell him           33
##  2 hall_female   i was in             29
##  3 college_women i was in             25
##  4 vietnam_vet   the scene changes    23
##  5 college_women and i was            22
##  6 hall_female   seemed to be         19
##  7 college_women that i was           18
##  8 hall_female   that i was           17
##  9 hall_male     seemed to be         17
## 10 hall_female   and i was            16
## # … with 50,925 more rows
```
…
```r
df_word <- df_word %>%
  anti_join(stop_words)
```

Then we can count the words and sort them into descending order.

```r
df_word %>%
  count(word, sort = TRUE)
```

```
## # A tibble: 5,331 × 2
##    word         n
##    <chr>    <int>
##  1 house      133
##  2 dream      132
##  3 remember   125
##  4 car        118
##  5 people     110
##  6 girl       108
##  7 friend     101
##  8 time        95
##  9 woman       93
## 10 mother      85
## # … with 5,321 more rows
```

But before we create some plots of these words, we should check for any anomalies in the *word* variable of df_word. The sorted count is likely to give back expected results (high frequency genuine words). But there can be other text elements that we may want to filter out. This will become obvious if we count, but don't sort.

```r
df_word %>%
  count(word)
```

```
## # A tibble: 5,331 × 2
##    word       n
##    <chr>  <int>
##  1 ___        1
##  2 ______     1
##  3 00         2
##  4 1          4
##  5 1,500      1
##  6 10        13
##  7 100        3
##  8 105        1
##  9 107th      1
## 10 109        1
## # … with 5,321 more rows
```
…
```r
df_word %>%
  filter(str_detect(word, pattern = "_", negate = TRUE)) %>%
  filter(str_detect(word, pattern = '[\\d]', negate = TRUE))
```

```
## # A tibble: 17,953 × 3
##    sample        dream_number word      
##    <fct>                <int> <chr>     
##  1 college_women            1 dreamed   
##  2 college_women            1 office    
##  3 college_women            1 directress
##  4 college_women            1 nurses    
##  5 college_women            1 nursing   
##  6 college_women            1 school    
##  7 college_women            1 forty     
##  8 college_women            1 told      
##  9 college_women            1 results   
## 10 college_women            1 i.q       
## # … with 17,943 more rows
```
…
```
## `summarise()` has grouped output by 'dream_number'. You can override using the `.groups` argument.
```

```
## # A tibble: 15,500 × 4
##    dream_number word         n percent
##           <int> <chr>    <int>   <dbl>
##  1            6 remember     3    21.4
##  2          358 office       5    20  
##  3          355 dog          7    19.4
##  4          381 bus          6    18.2
##  5            2 hair         3    16.7
##  6           20 bed          3    16.7
##  7           83 store        5    16.7
##  8          260 car          6    16.7
##  9          399 test         6    15.8
## 10           13 dream        2    15.4
## # … with 15,490 more rows
```
…
```
## `summarise()` has grouped output by 'sample'. You can override using the `.groups` argument.
```

```
## # A tibble: 8,118 × 4
##    sample        word         n percent
##    <fct>         <chr>    <int>   <dbl>
##  1 college_women remember    55    1.63
##  2 hall_male     dream       57    1.31
##  3 hall_male     car         51    1.17
##  4 hall_male     house       49    1.13
##  5 vietnam_vet   woman       64    1   
##  6 hall_female   remember    40    0.96
##  7 college_women car         32    0.95
##  8 college_women dream       32    0.95
##  9 hall_female   dream       38    0.92
## 10 hall_female   house       36    0.87
## # … with 8,108 more rows
```
…
